UART/UART_RX/UART_RX_tb.vcd
$date
	Wed Aug 17 22:08:28 2022
$end
$version
	ModelSim Version 10.5b
$end
$timescale
	1ps
$end

$scope module UART_RX_tb $end
$var parameter 32 ! DATA_WIDTH_tb $end
$var parameter 32 " PRESCALE_WIDTH_tb $end
$var parameter 32 # CLK_PERIOD $end
$var reg 1 $ PAR_EN_tb $end
$var reg 1 % RX_IN_tb $end
$var reg 6 & Prescale_tb [5:0] $end
$var reg 1 ' PAR_TYP_tb $end
$var reg 1 ( RX_CLK_tb $end
$var reg 1 ) RST_tb $end
$var wire 1 * P_DATA_tb [7] $end
$var wire 1 + P_DATA_tb [6] $end
$var wire 1 , P_DATA_tb [5] $end
$var wire 1 - P_DATA_tb [4] $end
$var wire 1 . P_DATA_tb [3] $end
$var wire 1 / P_DATA_tb [2] $end
$var wire 1 0 P_DATA_tb [1] $end
$var wire 1 1 P_DATA_tb [0] $end
$var wire 1 2 data_valid_tb $end
$var reg 1 3 TX_CLK_tb $end
$var reg 1 4 Data_Stimulus_En $end
$var reg 6 5 count [5:0] $end
$var reg 22 6 Data [21:0] $end

$scope module DUT $end
$var parameter 32 7 DATA_WIDTH $end
$var parameter 32 8 PRESCALE_WIDTH $end
$var wire 1 9 PAR_EN $end
$var wire 1 : RX_IN $end
$var wire 1 ; Prescale [5] $end
$var wire 1 < Prescale [4] $end
$var wire 1 = Prescale [3] $end
$var wire 1 > Prescale [2] $end
$var wire 1 ? Prescale [1] $end
$var wire 1 @ Prescale [0] $end
$var wire 1 A PAR_TYP $end
$var wire 1 B CLK $end
$var wire 1 C RST $end
$var wire 1 * P_DATA [7] $end
$var wire 1 + P_DATA [6] $end
$var wire 1 , P_DATA [5] $end
$var wire 1 - P_DATA [4] $end
$var wire 1 . P_DATA [3] $end
$var wire 1 / P_DATA [2] $end
$var wire 1 0 P_DATA [1] $end
$var wire 1 1 P_DATA [0] $end
$var wire 1 2 data_valid $end
$var wire 1 D dat_samp_en $end
$var wire 1 E edge_cnt [5] $end
$var wire 1 F edge_cnt [4] $end
$var wire 1 G edge_cnt [3] $end
$var wire 1 H edge_cnt [2] $end
$var wire 1 I edge_cnt [1] $end
$var wire 1 J edge_cnt [0] $end
$var wire 1 K bit_cnt [4] $end
$var wire 1 L bit_cnt [3] $end
$var wire 1 M bit_cnt [2] $end
$var wire 1 N bit_cnt [1] $end
$var wire 1 O bit_cnt [0] $end
$var wire 1 P enable $end
$var wire 1 Q sampled_bit $end
$var wire 1 R deser_en $end
$var wire 1 S stp_chk_en $end
$var wire 1 T stp_err $end
$var wire 1 U strt_chk_en $end
$var wire 1 V strt_glitch $end
$var wire 1 W par_chk_en $end
$var wire 1 X par_err $end

$scope module sampler $end
$var parameter 32 Y PRESCALE_WIDTH $end
$var wire 1 E edge_cnt [5] $end
$var wire 1 F edge_cnt [4] $end
$var wire 1 G edge_cnt [3] $end
$var wire 1 H edge_cnt [2] $end
$var wire 1 I edge_cnt [1] $end
$var wire 1 J edge_cnt [0] $end
$var wire 1 D dat_samp_en $end
$var wire 1 : RX_IN $end
$var wire 1 ; Prescale [5] $end
$var wire 1 < Prescale [4] $end
$var wire 1 = Prescale [3] $end
$var wire 1 > Prescale [2] $end
$var wire 1 ? Prescale [1] $end
$var wire 1 @ Prescale [0] $end
$var wire 1 B CLK $end
$var wire 1 C RST $end
$var reg 1 Z sampled_bit $end
$var wire 1 [ num_samples [5] $end
$var wire 1 \ num_samples [4] $end
$var wire 1 ] num_samples [3] $end
$var wire 1 ^ num_samples [2] $end
$var wire 1 _ num_samples [1] $end
$var wire 1 ` num_samples [0] $end
$var reg 6 a counter [5:0] $end
$var reg 6 b ones [5:0] $end
$var reg 6 c zeroes [5:0] $end
$upscope $end

$scope module deser $end
$var parameter 32 d DATA_WIDTH $end
$var parameter 32 e PRESCALE_WIDTH $end
$var wire 1 R deser_en $end
$var wire 1 Q sampled_bit $end
$var wire 1 B CLK $end
$var wire 1 C RST $end
$var wire 1 E edge_cnt [5] $end
$var wire 1 F edge_cnt [4] $end
$var wire 1 G edge_cnt [3] $end
$var wire 1 H edge_cnt [2] $end
$var wire 1 I edge_cnt [1] $end
$var wire 1 J edge_cnt [0] $end
$var wire 1 ; Prescale [5] $end
$var wire 1 < Prescale [4] $end
$var wire 1 = Prescale [3] $end
$var wire 1 > Prescale [2] $end
$var wire 1 ? Prescale [1] $end
$var wire 1 @ Prescale [0] $end
$var reg 8 f P_DATA [7:0] $end
$var reg 8 g bit_index [7:0] $end
$upscope $end

$scope module edge_bit_cnt $end
$var parameter 32 h PRESCALE_WIDTH $end
$var wire 1 P enable $end
$var wire 1 ; Prescale [5] $end
$var wire 1 < Prescale [4] $end
$var wire 1 = Prescale [3] $end
$var wire 1 > Prescale [2] $end
$var wire 1 ? Prescale [1] $end
$var wire 1 @ Prescale [0] $end
$var wire 1 B CLK $end
$var wire 1 C RST $end
$var reg 5 i bit_cnt [4:0] $end
$var reg 6 j edge_cnt [5:0] $end
$var wire 1 k edge_cnt_done $end
$upscope $end

$scope module FSM $end
$var parameter 32 l PRESCALE_WIDTH $end
$var parameter 7 m IDLE $end
$var parameter 7 n Start $end
$var parameter 7 o Data $end
$var parameter 7 p Parity $end
$var parameter 7 q Stop $end
$var parameter 7 r Err_chk $end
$var parameter 7 s Data_vld $end
$var wire 1 : RX_IN $end
$var wire 1 9 PAR_EN $end
$var wire 1 E edge_cnt [5] $end
$var wire 1 F edge_cnt [4] $end
$var wire 1 G edge_cnt [3] $end
$var wire 1 H edge_cnt [2] $end
$var wire 1 I edge_cnt [1] $end
$var wire 1 J edge_cnt [0] $end
$var wire 1 K bit_cnt [4] $end
$var wire 1 L bit_cnt [3] $end
$var wire 1 M bit_cnt [2] $end
$var wire 1 N bit_cnt [1] $end
$var wire 1 O bit_cnt [0] $end
$var wire 1 ; Prescale [5] $end
$var wire 1 < Prescale [4] $end
$var wire 1 = Prescale [3] $end
$var wire 1 > Prescale [2] $end
$var wire 1 ? Prescale [1] $end
$var wire 1 @ Prescale [0] $end
$var wire 1 T stp_err $end
$var wire 1 V strt_glitch $end
$var wire 1 X par_err $end
$var wire 1 B CLK $end
$var wire 1 C RST $end
$var reg 1 t dat_samp_en $end
$var reg 1 u enable $end
$var reg 1 v deser_en $end
$var reg 1 w data_valid $end
$var reg 1 x stp_chk_en $end
$var reg 1 y strt_chk_en $end
$var reg 1 z par_chk_en $end
$var reg 7 { current_state [6:0] $end
$var reg 7 | next_state [6:0] $end
$upscope $end

$scope module par_chk $end
$var parameter 32 } DATA_WIDTH $end
$var wire 1 A PAR_TYP $end
$var wire 1 W par_chk_en $end
$var wire 1 Q sampled_bit $end
$var wire 1 * P_DATA [7] $end
$var wire 1 + P_DATA [6] $end
$var wire 1 , P_DATA [5] $end
$var wire 1 - P_DATA [4] $end
$var wire 1 . P_DATA [3] $end
$var wire 1 / P_DATA [2] $end
$var wire 1 0 P_DATA [1] $end
$var wire 1 1 P_DATA [0] $end
$var wire 1 B CLK $end
$var wire 1 C RST $end
$var reg 1 ~ par_err $end
$var reg 1 !! par_bit $end
$upscope $end

$scope module stp_chk $end
$var wire 1 S stp_chk_en $end
$var wire 1 Q sampled_bit $end
$var wire 1 B CLK $end
$var wire 1 C RST $end
$var reg 1 "! stp_err $end
$upscope $end

$scope module strt_chk $end
$var wire 1 U strt_chk_en $end
$var wire 1 Q sampled_bit $end
$var wire 1 B CLK $end
$var wire 1 C RST $end
$var reg 1 #! strt_glitch $end
$upscope $end
$upscope $end
$upscope $end
$enddefinitions $end
#0
$dumpvars
0$
1%
b0 &
0'
1(
0)
03
04
b0 5
b1001111101010010101010 6
0Z
b0 a
b0 b
b0 c
b0 f
b0 g
b0 i
b0 j
0t
0u
0v
0w
0x
0y
0z
b1 {
b1 |
0~
x!!
0"!
0#!
b1000 !
b110 "
b1100100 #
b1000 7
b110 8
b110 Y
b1000 d
b110 e
b110 h
b110 l
b1 m
b10 n
b100 o
b1000 p
b10000 q
b100000 r
b1000000 s
b1000 }
01
00
0/
0.
0-
0,
0+
0*
02
0D
0J
0I
0H
0G
0F
0E
0O
0N
0M
0L
0K
0P
0Q
0R
0S
0T
0U
0V
0W
0X
1`
0_
0^
0]
0\
0[
0k
0C
1B
0A
0@
0?
0>
0=
0<
0;
1:
09
$end
#100000
1$
b1000 &
1)
0(
19
1=
1C
0B
1_
#200000
1(
1B
#300000
0(
0B
#400000
1(
1B
#500000
0(
0B
#600000
1(
1B
#700000
0(
0B
#800000
13
1(
1B
#900000
0(
0B
#1000000
1(
1B
#1100000
14
0(
0B
#1200000
1(
1B
#1300000
0(
0B
#1400000
1(
1B
#1500000
0(
0B
#1600000
03
1(
1B
#1700000
0(
0B
#1800000
1(
1B
#1900000
0(
0B
#2000000
1(
1B
#2100000
0(
0B
#2200000
1(
1B
#2300000
0(
0B
#2400000
13
1(
1B
0%
b1 5
0:
b10 |
1t
1u
1y
1D
1P
1U
#2500000
0(
0B
#2600000
1(
1B
b1 j
b10 {
1J
0t
0u
0y
1t
1u
1y
#2700000
0(
0B
#2800000
1(
1B
b10 j
0J
1I
#2900000
0(
0B
#3000000
1(
1B
b11 j
1J
#3100000
0(
0B
#3200000
03
1(
1B
b1 a
b1 c
b100 j
0J
0I
1H
#3300000
0(
0B
#3400000
1(
1B
b10 a
b10 c
b101 j
1J
#3500000
0(
0B
#3600000
1(
1B
b11 a
b11 c
b110 j
0J
1I
#3700000
0(
0B
#3800000
1(
1B
b0 a
b0 c
b111 j
1k
1J
b100 |
#3900000
0(
0B
#4000000
13
1(
1B
b1 a
b1 c
b0 j
b1 i
b100 {
1%
b10 5
0k
1O
0J
0I
0H
1:
0t
0u
0y
1t
1u
1v
0U
1R
#4100000
0(
0B
#4200000
1(
1B
b0 a
b0 c
b1 j
1J
#4300000
0(
0B
#4400000
1(
1B
b10 j
0J
1I
#4500000
0(
0B
#4600000
1(
1B
b11 j
1J
#4700000
0(
0B
#4800000
03
1(
1B
b1 a
b1 b
b100 j
0J
0I
1H
#4900000
0(
0B
#5000000
1(
1B
b10 a
b10 b
b101 j
1J
#5100000
0(
0B
#5200000
1(
1B
b11 a
b11 b
b110 j
0J
1I
#5300000
0(
0B
#5400000
1(
1B
b0 a
1Z
b0 b
b111 j
1Q
1k
1J
#5500000
0(
0B
#5600000
13
1(
1B
b1 a
b1 b
b1 f
b1 g
b0 j
b10 i
0%
b11 5
0k
0O
1N
0J
0I
0H
11
0:
0t
0u
0v
1t
1u
1v
#5700000
0(
0B
#5800000
1(
1B
b0 a
b0 b
b1 j
1J
#5900000
0(
0B
#6000000
1(
1B
0Z
b10 j
0Q
0J
1I
#6100000
0(
0B
#6200000
1(
1B
b11 j
1J
#6300000
0(
0B
#6400000
03
1(
1B
b1 a
b1 c
b100 j
0J
0I
1H
#6500000
0(
0B
#6600000
1(
1B
b10 a
b10 c
b101 j
1J
#6700000
0(
0B
#6800000
1(
1B
b11 a
b11 c
b110 j
0J
1I
#6900000
0(
0B
#7000000
1(
1B
b0 a
b0 c
b111 j
1k
1J
#7100000
0(
0B
#7200000
13
1(
1B
b1 a
b1 c
b10 g
b0 j
b11 i
1%
b100 5
0k
1O
0J
0I
0H
1:
0t
0u
0v
1t
1u
1v
#7300000
0(
0B
#7400000
1(
1B
b0 a
b0 c
b1 j
1J
#7500000
0(
0B
#7600000
1(
1B
b10 j
0J
1I
#7700000
0(
0B
#7800000
1(
1B
b11 j
1J
#7900000
0(
0B
#8000000
03
1(
1B
b1 a
b1 b
b100 j
0J
0I
1H
#8100000
0(
0B
#8200000
1(
1B
b10 a
b10 b
b101 j
1J
#8300000
0(
0B
#8400000
1(
1B
b11 a
b11 b
b110 j
0J
1I
#8500000
0(
0B
#8600000
1(
1B
b0 a
1Z
b0 b
b111 j
1Q
1k
1J
#8700000
0(
0B
#8800000
13
1(
1B
b1 a
b1 b
b101 f
b11 g
b0 j
b100 i
0%
b101 5
0k
0O
0N
1M
0J
0I
0H
1/
0:
0t
0u
0v
1t
1u
1v
#8900000
0(
0B
#9000000
1(
1B
b0 a
b0 b
b1 j
1J
#9100000
0(
0B
#9200000
1(
1B
0Z
b10 j
0Q
0J
1I
#9300000
0(
0B
#9400000
1(
1B
b11 j
1J
#9500000
0(
0B
#9600000
03
1(
1B
b1 a
b1 c
b100 j
0J
0I
1H
#9700000
0(
0B
#9800000
1(
1B
b10 a
b10 c
b101 j
1J
#9900000
0(
0B
#10000000
1(
1B
b11 a
b11 c
b110 j
0J
1I
#10100000
0(
0B
#10200000
1(
1B
b0 a
b0 c
b111 j
1k
1J
#10300000
0(
0B
#10400000
13
1(
1B
b1 a
b1 c
b100 g
b0 j
b101 i
1%
b110 5
0k
1O
0J
0I
0H
1:
0t
0u
0v
1t
1u
1v
#10500000
0(
0B
#10600000
1(
1B
b0 a
b0 c
b1 j
1J
#10700000
0(
0B
#10800000
1(
1B
b10 j
0J
1I
#10900000
0(
0B
#11000000
1(
1B
b11 j
1J
#11100000
0(
0B
#11200000
03
1(
1B
b1 a
b1 b
b100 j
0J
0I
1H
#11300000
0(
0B
#11400000
1(
1B
b10 a
b10 b
b101 j
1J
#11500000
0(
0B
#11600000
1(
1B
b11 a
b11 b
b110 j
0J
1I
#11700000
0(
0B
#11800000
1(
1B
b0 a
1Z
b0 b
b111 j
1Q
1k
1J
#11900000
0(
0B
#12000000
13
1(
1B
b1 a
b1 b
b10101 f
b101 g
b0 j
b110 i
0%
b111 5
0k
0O
1N
0J
0I
0H
1-
0:
0t
0u
0v
1t
1u
1v
#12100000
0(
0B
#12200000
1(
1B
b0 a
b0 b
b1 j
1J
#12300000
0(
0B
#12400000
1(
1B
0Z
b10 j
0Q
0J
1I
#12500000
0(
0B
#12600000
1(
1B
b11 j
1J
#12700000
0(
0B
#12800000
03
1(
1B
b1 a
b1 c
b100 j
0J
0I
1H
#12900000
0(
0B
#13000000
1(
1B
b10 a
b10 c
b101 j
1J
#13100000
0(
0B
#13200000
1(
1B
b11 a
b11 c
b110 j
0J
1I
#13300000
0(
0B
#13400000
1(
1B
b0 a
b0 c
b111 j
1k
1J
#13500000
0(
0B
#13600000
13
1(
1B
b1 a
b1 c
b110 g
b0 j
b111 i
1%
b1000 5
0k
1O
0J
0I
0H
1:
0t
0u
0v
1t
1u
1v
#13700000
0(
0B
#13800000
1(
1B
b0 a
b0 c
b1 j
1J
#13900000
0(
0B
#14000000
1(
1B
b10 j
0J
1I
#14100000
0(
0B
#14200000
1(
1B
b11 j
1J
#14300000
0(
0B
#14400000
03
1(
1B
b1 a
b1 b
b100 j
0J
0I
1H
#14500000
0(
0B
#14600000
1(
1B
b10 a
b10 b
b101 j
1J
#14700000
0(
0B
#14800000
1(
1B
b11 a
b11 b
b110 j
0J
1I
#14900000
0(
0B
#15000000
1(
1B
b0 a
1Z
b0 b
b111 j
1Q
1k
1J
#15100000
0(
0B
#15200000
13
1(
1B
b1 a
b1 b
b1010101 f
b111 g
b0 j
b1000 i
0%
b1001 5
0k
0O
0N
0M
1L
0J
0I
0H
1+
0:
0t
0u
0v
1t
1u
1v
#15300000
0(
0B
#15400000
1(
1B
b0 a
b0 b
b1 j
1J
#15500000
0(
0B
#15600000
1(
1B
0Z
b10 j
0Q
0J
1I
#15700000
0(
0B
#15800000
1(
1B
b11 j
1J
#15900000
0(
0B
#16000000
03
1(
1B
b1 a
b1 c
b100 j
0J
0I
1H
#16100000
0(
0B
#16200000
1(
1B
b10 a
b10 c
b101 j
1J
#16300000
0(
0B
#16400000
1(
1B
b11 a
b11 c
b110 j
0J
1I
#16500000
0(
0B
#16600000
1(
1B
b0 a
b0 c
b111 j
1k
1J
b1000 |
#16700000
0(
0B
#16800000
13
1(
1B
b1 a
b1 c
b1000 g
b0 j
b1001 i
b1000 {
b1010 5
0k
1O
0J
0I
0H
0t
0u
0v
1t
1u
1z
0R
1W
0!!
#16900000
0(
0B
#17000000
1(
1B
b0 a
b0 c
b0 g
b1 j
1J
#17100000
0(
0B
#17200000
1(
1B
b10 j
0J
1I
#17300000
0(
0B
#17400000
1(
1B
b11 j
1J
#17500000
0(
0B
#17600000
03
1(
1B
b1 a
b1 c
b100 j
0J
0I
1H
#17700000
0(
0B
#17800000
1(
1B
b10 a
b10 c
b101 j
1J
#17900000
0(
0B
#18000000
1(
1B
b11 a
b11 c
b110 j
0J
1I
#18100000
0(
0B
#18200000
1(
1B
b0 a
b0 c
b111 j
1k
1J
b10000 |
#18300000
0(
0B
#18400000
13
1(
1B
b1 a
b1 c
b0 j
b1010 i
b10000 {
1%
b1011 5
0k
0O
1N
0J
0I
0H
1:
0t
0u
0z
1t
1u
1x
1S
0W
#18500000
0(
0B
#18600000
1(
1B
b0 a
b0 c
b1 j
1"!
1J
1T
#18700000
0(
0B
#18800000
1(
1B
b10 j
0J
1I
#18900000
0(
0B
#19000000
1(
1B
b11 j
1J
#19100000
0(
0B
#19200000
03
1(
1B
b1 a
b1 b
b100 j
0J
0I
1H
#19300000
0(
0B
#19400000
1(
1B
b10 a
b10 b
b101 j
1J
#19500000
0(
0B
#19600000
1(
1B
b11 a
b11 b
b110 j
0J
1I
#19700000
0(
0B
#19800000
1(
1B
b0 a
1Z
b0 b
b111 j
1Q
1k
1J
b100000 |
#19900000
0(
0B
#20000000
13
1(
1B
b1 a
b1 b
b0 j
b1011 i
b100000 {
0"!
0%
b1100 5
0k
1O
0J
0I
0H
0T
0:
b1000000 |
0t
0u
0x
1t
0P
0S
#20100000
0(
0B
#20200000
1(
1B
b0 a
b0 b
b0 i
b1000000 {
0O
0N
0L
b10 |
0t
1w
0D
12
#20300000
0(
0B
#20400000
1(
1B
b10 {
0w
1t
1u
1y
02
1D
1P
1U
#20500000
0(
0B
#20600000
1(
1B
0Z
b1 j
1#!
0Q
1J
1V
#20700000
0(
0B
#20800000
03
1(
1B
b10 j
0#!
0J
1I
0V
#20900000
0(
0B
#21000000
1(
1B
b11 j
1J
#21100000
0(
0B
#21200000
1(
1B
b1 a
b1 c
b100 j
0J
0I
1H
#21300000
0(
0B
#21400000
1(
1B
b10 a
b10 c
b101 j
1J
#21500000
0(
0B
#21600000
13
1(
1B
b11 a
b11 c
b110 j
1%
b1101 5
0J
1I
1:
0t
0u
0y
1t
1u
1y
#21700000
0(
0B
#21800000
1(
1B
b0 a
b0 c
b111 j
1k
1J
b100 |
#21900000
0(
0B
#22000000
1(
1B
b1 a
b1 b
b0 j
b1 i
b100 {
0k
1O
0J
0I
0H
0t
0u
0y
1t
1u
1v
0U
1R
#22100000
0(
0B
#22200000
1(
1B
b0 a
1Z
b0 b
b1 j
1Q
1J
#22300000
0(
0B
#22400000
03
1(
1B
0Z
b10 j
0Q
0J
1I
#22500000
0(
0B
#22600000
1(
1B
b11 j
1J
#22700000
0(
0B
#22800000
1(
1B
b1 a
b1 b
b100 j
0J
0I
1H
#22900000
0(
0B
#23000000
1(
1B
b10 a
b10 b
b101 j
1J
#23100000
0(
0B
#23200000
13
1(
1B
b11 a
b11 b
b110 j
0%
b1110 5
0J
1I
0:
0t
0u
0v
1t
1u
1v
#23300000
0(
0B
#23400000
1(
1B
b0 a
1Z
b0 b
b111 j
1Q
1k
1J
#23500000
0(
0B
#23600000
1(
1B
b1 a
b1 c
b1 g
b0 j
b10 i
0k
0O
1N
0J
0I
0H
#23700000
0(
0B
#23800000
1(
1B
b0 a
0Z
b0 c
b1 j
0Q
1J
#23900000
0(
0B
#24000000
03
1(
1B
b10 j
0J
1I
#24100000
0(
0B
#24200000
1(
1B
b11 j
1J
#24300000
0(
0B
#24400000
1(
1B
b1 a
b1 c
b100 j
0J
0I
1H
#24500000
0(
0B
#24600000
1(
1B
b10 a
b10 c
b101 j
1J
#24700000
0(
0B
#24800000
13
1(
1B
b11 a
b11 c
b110 j
1%
b1111 5
0J
1I
1:
0t
0u
0v
1t
1u
1v
#24900000
0(
0B
#25000000
1(
1B
b0 a
b0 c
b111 j
1k
1J
#25100000
0(
0B
#25200000
1(
1B
b1 a
b1 b
b10 g
b0 j
b11 i
0k
1O
0J
0I
0H
#25300000
0(
0B
#25400000
1(
1B
b0 a
1Z
b0 b
b1 j
1Q
1J
#25500000
0(
0B
#25600000
03
1(
1B
0Z
b10 j
0Q
0J
1I
#25700000
0(
0B
#25800000
1(
1B
b11 j
1J
#25900000
0(
0B
#26000000
1(
1B
b1 a
b1 b
b100 j
0J
0I
1H
#26100000
0(
0B
#26200000
1(
1B
b10 a
b10 b
b101 j
1J
#26300000
0(
0B
#26400000
13
1(
1B
b11 a
b11 b
b110 j
b10000 5
0J
1I
#26500000
0(
0B
#26600000
1(
1B
b0 a
1Z
b0 b
b111 j
1Q
1k
1J
#26700000
0(
0B
#26800000
1(
1B
b1 a
b1 b
b11 g
b0 j
b100 i
0k
0O
0N
1M
0J
0I
0H
#26900000
0(
0B
#27000000
1(
1B
b0 a
b0 b
b1 j
1J
#27100000
0(
0B
#27200000
03
1(
1B
0Z
b10 j
0Q
0J
1I
#27300000
0(
0B
#27400000
1(
1B
b11 j
1J
#27500000
0(
0B
#27600000
1(
1B
b1 a
b1 b
b100 j
0J
0I
1H
#27700000
0(
0B
#27800000
1(
1B
b10 a
b10 b
b101 j
1J
#27900000
0(
0B
#28000000
13
1(
1B
b11 a
b11 b
b110 j
b10001 5
0J
1I
#28100000
0(
0B
#28200000
1(
1B
b0 a
1Z
b0 b
b111 j
1Q
1k
1J
#28300000
0(
0B
#28400000
1(
1B
b1 a
b1 b
b1011101 f
b100 g
b0 j
b101 i
0k
1O
0J
0I
0H
1.
#28500000
0(
0B
#28600000
1(
1B
b0 a
b0 b
b1 j
1J
#28700000
0(
0B
#28800000
03
1(
1B
0Z
b10 j
0Q
0J
1I
#28900000
0(
0B
#29000000
1(
1B
b11 j
1J
#29100000
0(
0B
#29200000
1(
1B
b1 a
b1 b
b100 j
0J
0I
1H
#29300000
0(
0B
#29400000
1(
1B
b10 a
b10 b
b101 j
1J
#29500000
0(
0B
#29600000
13
1(
1B
b11 a
b11 b
b110 j
b10010 5
0J
1I
#29700000
0(
0B
#29800000
1(
1B
b0 a
1Z
b0 b
b111 j
1Q
1k
1J
#29900000
0(
0B
#30000000
1(
1B
b1 a
b1 b
b101 g
b0 j
b110 i
0k
0O
1N
0J
0I
0H
#30100000
0(
0B
#30200000
1(
1B
b0 a
b0 b
b1 j
1J
#30300000
0(
0B
#30400000
03
1(
1B
0Z
b10 j
0Q
0J
1I
#30500000
0(
0B
#30600000
1(
1B
b11 j
1J
#30700000
0(
0B
#30800000
1(
1B
b1 a
b1 b
b100 j
0J
0I
1H
#30900000
0(
0B
#31000000
1(
1B
b10 a
b10 b
b101 j
1J
#31100000
0(
0B
#31200000
13
1(
1B
b11 a
b11 b
b110 j
b10011 5
0J
1I
#31300000
0(
0B
#31400000
1(
1B
b0 a
1Z
b0 b
b111 j
1Q
1k
1J
#31500000
0(
0B
#31600000
1(
1B
b1 a
b1 b
b1111101 f
b110 g
b0 j
b111 i
0k
1O
0J
0I
0H
1,
#31700000
0(
0B
#31800000
1(
1B
b0 a
b0 b
b1 j
1J
#31900000
0(
0B
#32000000
03
1(
1B
0Z
b10 j
0Q
0J
1I
#32100000
0(
0B
#32200000
1(
1B
b11 j
1J
#32300000
0(
0B
#32400000
1(
1B
b1 a
b1 b
b100 j
0J
0I
1H
#32500000
0(
0B
#32600000
1(
1B
b10 a
b10 b
b101 j
1J
#32700000
0(
0B
#32800000
13
1(
1B
b11 a
b11 b
b110 j
0%
b10100 5
0J
1I
0:
0t
0u
0v
1t
1u
1v
#32900000
0(
0B
#33000000
1(
1B
b0 a
1Z
b0 b
b111 j
1Q
1k
1J
#33100000
0(
0B
#33200000
1(
1B
b1 a
b1 c
b111 g
b0 j
b1000 i
0k
0O
0N
0M
1L
0J
0I
0H
#33300000
0(
0B
#33400000
1(
1B
b0 a
0Z
b0 c
b1 j
0Q
1J
#33500000
0(
0B
#33600000
03
1(
1B
b10 j
0J
1I
#33700000
0(
0B
#33800000
1(
1B
b11 j
1J
#33900000
0(
0B
#34000000
1(
1B
b1 a
b1 c
b100 j
0J
0I
1H
#34100000
0(
0B
#34200000
1(
1B
b10 a
b10 c
b101 j
1J
#34300000
0(
0B
#34400000
13
1(
1B
b11 a
b11 c
b110 j
b10101 5
0J
1I
#34500000
0(
0B
#34600000
1(
1B
b0 a
b0 c
b111 j
1k
1J
b1000 |
#34700000
0(
0B
#34800000
1(
1B
b1 a
b1 c
b1000 g
b0 j
b1001 i
b1000 {
0k
1O
0J
0I
0H
0t
0u
0v
1t
1u
1z
0R
1W
#34900000
0(
0B
#35000000
1(
1B
b0 a
b0 c
b0 g
b1 j
1J
#35100000
0(
0B
#35200000
03
1(
1B
b10 j
0J
1I
#35300000
0(
0B
#35400000
1(
1B
b11 j
1J
#35500000
0(
0B
#35600000
1(
1B
b1 a
b1 c
b100 j
0J
0I
1H
#35700000
0(
0B
#35800000
1(
1B
b10 a
b10 c
b101 j
1J
#35900000
0(
0B
#36000000
13
1(
1B
b11 a
b11 c
b110 j
1%
b10110 5
0J
1I
1:
0t
0u
0z
1t
1u
1z
#36100000
0(
0B
#36200000
1(
1B
b0 a
b0 c
b111 j
1k
1J
b10000 |
#36300000
0(
0B
#36400000
1(
1B
b1 a
b1 b
b0 j
b1010 i
b10000 {
0k
0O
1N
0J
0I
0H
0t
0u
0z
1t
1u
1x
1S
0W
#36500000
0(
0B
#36600000
1(
1B
b0 a
1Z
b0 b
b1 j
1"!
1Q
1J
1T
#36700000
0(
0B
#36800000
03
1(
1B
0Z
b10 j
0"!
0Q
0J
1I
0T
#36900000
0(
0B
#37000000
1(
1B
b11 j
1"!
1J
1T
#37100000
0(
0B
#37200000
1(
1B
b1 a
b1 b
b100 j
0J
0I
1H
#37300000
0(
0B
#37400000
1(
1B
b10 a
b10 b
b101 j
1J
#37500000
0(
0B
#37600000
13
1(
1B
b11 a
b11 b
b110 j
0J
1I
#37700000
0(
0B
#37800000
1(
1B
b0 a
1Z
b0 b
b111 j
1Q
1k
1J
b100000 |
#37900000
0(
0B
#38000000
1(
1B
b1 a
b1 b
b0 j
b1011 i
b100000 {
0"!
0k
1O
0J
0I
0H
0T
b1000000 |
0t
0u
0x
1t
0P
0S
#38100000
0(
0B
#38200000
1(
1B
b0 a
b0 b
b0 i
b1000000 {
0O
0N
0L
b1 |
0t
1w
0D
12
#38300000
0(
0B
#38400000
03
1(
1B
b1 {
0w
02
